rh.aparc.thickness	rh_bankssts_thickness	rh_caudalanteriorcingulate_thickness	rh_caudalmiddlefrontal_thickness	rh_cuneus_thickness	rh_entorhinal_thickness	rh_fusiform_thickness	rh_inferiorparietal_thickness	rh_inferiortemporal_thickness	rh_isthmuscingulate_thickness	rh_lateraloccipital_thickness	rh_lateralorbitofrontal_thickness	rh_lingual_thickness	rh_medialorbitofrontal_thickness	rh_middletemporal_thickness	rh_parahippocampal_thickness	rh_paracentral_thickness	rh_parsopercularis_thickness	rh_parsorbitalis_thickness	rh_parstriangularis_thickness	rh_pericalcarine_thickness	rh_postcentral_thickness	rh_posteriorcingulate_thickness	rh_precentral_thickness	rh_precuneus_thickness	rh_rostralanteriorcingulate_thickness	rh_rostralmiddlefrontal_thickness	rh_superiorfrontal_thickness	rh_superiorparietal_thickness	rh_superiortemporal_thickness	rh_supramarginal_thickness	rh_frontalpole_thickness	rh_temporalpole_thickness	rh_transversetemporal_thickness	rh_insula_thickness	rh_MeanThickness_thickness
036_S_0976_23852_I65091.long.036_S_0976	2.424	2.737	2.076	1.548	2.99	2.289	2.08	2.626	2.025	1.774	2.225	1.565	2.195	2.554	2.331	1.833	2.042	2.14	1.695	1.306	1.642	2.483	2.042	1.936	2.553	1.879	2.369	1.753	2.432	2.125	2.077	3.516	1.796	2.61	2.08036
036_S_0976_34868_I71571.long.036_S_0976	2.352	2.71	2.309	1.672	2.691	2.246	2.156	2.532	1.913	1.848	2.318	1.603	2.269	2.488	2.308	2.055	2.27	2.348	1.941	1.45	1.914	2.466	2.407	2.118	2.588	2.001	2.449	1.958	2.43	2.291	2.28	3.493	1.985	2.665	2.19653
036_S_0976_44594_I94520.long.036_S_0976	2.244	2.762	2.351	1.664	2.885	2.243	2.184	2.575	1.868	1.84	2.349	1.623	2.354	2.508	2.206	2.042	2.25	2.335	1.929	1.449	1.931	2.553	2.292	2.077	2.611	1.999	2.415	1.944	2.405	2.272	2.299	3.545	1.969	2.656	2.18828
037_S_0182_11644_I65134.long.037_S_0182	2.052	2.789	1.989	1.629	2.798	2.262	1.876	2.449	2.2	1.883	2.207	1.573	1.694	2.0	2.209	1.878	2.25	2.221	2.009	1.348	1.698	1.977	2.15	1.721	3.095	1.829	2.147	1.825	2.322	2.244	1.728	3.372	1.854	2.561	2.0079
041_S_0314_12492_I34680.long.041_S_0314	2.442	2.863	2.519	1.7	3.636	2.682	2.354	2.738	2.237	1.974	2.586	1.798	2.149	2.753	2.308	2.396	2.366	2.7	2.182	1.3	1.931	2.509	2.326	2.195	2.897	2.207	2.723	2.198	2.842	2.406	2.819	3.766	2.257	2.849	2.35827
041_S_0314_27130_I65152.long.041_S_0314	2.41	2.948	2.523	1.744	3.509	2.649	2.206	2.612	2.2	1.984	2.655	1.862	2.215	2.746	2.284	2.357	2.462	2.643	2.291	1.385	1.763	2.51	2.254	2.097	2.823	2.223	2.688	2.08	2.77	2.348	2.805	3.669	2.25	2.822	2.31817
041_S_0314_31643_I64134.long.041_S_0314	2.304	2.928	2.342	1.734	3.52	2.688	2.14	2.667	2.245	2.017	2.676	1.854	2.194	2.709	2.177	2.339	2.39	2.633	2.181	1.34	1.646	2.379	2.186	2.072	2.855	2.163	2.649	1.974	2.73	2.251	2.827	3.68	2.254	2.812	2.27563
041_S_0314_43179_I86810.long.041_S_0314	2.425	2.799	2.434	1.726	3.552	2.673	2.288	2.634	2.174	2.009	2.581	1.862	2.164	2.742	2.141	2.332	2.377	2.597	2.222	1.42	1.771	2.335	2.203	2.133	2.86	2.175	2.637	2.1	2.748	2.342	2.799	3.533	2.441	2.838	2.30773
041_S_0314_8723_I103378.long.041_S_0314	2.441	2.838	2.485	1.736	3.472	2.652	2.309	2.633	2.257	2.017	2.604	1.834	2.149	2.75	2.181	2.362	2.462	2.631	2.294	1.364	1.839	2.409	2.332	2.119	2.806	2.183	2.637	2.107	2.724	2.35	2.761	3.706	2.389	2.851	2.32574
041_S_0314_6432_I148049.long.041_S_0314	2.415	2.987	2.331	1.69	3.363	2.545	2.14	2.545	2.187	2.011	2.578	1.778	2.167	2.704	2.04	2.186	2.462	2.585	2.262	1.265	1.724	2.365	2.199	2.059	2.792	2.146	2.601	2.017	2.701	2.288	2.632	3.666	2.32	2.691	2.253
052_S_0952_20364_I89952.long.052_S_0952	2.291	2.829	1.858	1.482	2.61	2.157	1.922	2.409	2.019	1.772	2.221	1.487	1.969	2.418	2.296	2.078	2.257	2.23	2.068	1.101	1.575	2.261	1.906	1.677	2.614	1.962	2.333	1.518	2.262	2.065	2.561	3.483	2.182	2.508	1.99539
052_S_0952_30164_I62224.long.052_S_0952	2.297	2.501	1.767	1.46	2.694	2.271	1.963	2.49	2.11	1.754	2.251	1.499	2.032	2.468	2.428	2.022	2.347	2.31	2.32	1.156	1.581	2.222	1.857	1.807	2.549	2.065	2.322	1.602	2.292	2.108	2.689	3.264	2.241	2.558	2.02767
052_S_0952_42607_I85533.long.052_S_0952	2.288	2.66	1.795	1.471	2.716	2.083	1.931	2.402	1.959	1.78	2.274	1.473	1.919	2.416	2.217	1.963	2.238	2.271	2.134	1.147	1.603	2.285	1.955	1.705	2.583	1.961	2.301	1.601	2.215	2.055	2.503	3.384	2.293	2.44	1.99294
052_S_0952_0105_I106494.long.052_S_0952	2.316	2.632	1.903	1.471	2.886	2.144	1.996	2.461	1.934	1.832	2.257	1.467	1.95	2.516	2.296	2.137	2.337	2.311	2.27	1.153	1.691	2.24	1.936	1.749	2.561	2.079	2.428	1.675	2.311	2.132	2.603	3.388	2.338	2.499	2.05741
052_S_0952_8871_I129571.long.052_S_0952	2.279	2.702	1.679	1.443	2.965	2.073	1.812	2.395	1.855	1.702	2.297	1.464	2.103	2.353	2.308	1.829	2.289	2.244	2.207	1.136	1.664	2.139	1.955	1.674	2.471	1.925	2.138	1.49	2.241	2.01	2.521	3.184	1.855	2.503	1.95055
052_S_0952_7174_I162991.long.052_S_0952	2.203	2.3	1.755	1.436	2.509	2.023	1.855	2.234	1.764	1.726	2.167	1.392	1.793	2.28	2.073	1.907	2.121	2.183	2.13	1.141	1.601	2.063	1.863	1.659	2.211	1.807	2.155	1.598	2.158	1.967	2.236	3.066	1.947	2.341	1.90005
057_S_0839_19188_I38670.long.057_S_0839	2.217	2.185	2.354	1.617	3.235	2.47	2.29	2.454	1.997	1.959	2.404	1.768	2.219	2.366	2.377	2.122	2.273	2.381	2.135	1.449	2.085	2.444	2.367	2.153	2.595	2.143	2.506	2.02	2.474	2.298	2.381	3.431	2.117	2.712	2.25095
057_S_0839_29935_I64228.long.057_S_0839	2.203	2.215	2.289	1.582	3.252	2.487	2.248	2.473	2.027	1.983	2.437	1.756	2.217	2.358	2.394	2.021	2.111	2.374	2.098	1.396	1.968	2.45	2.377	2.133	2.547	2.065	2.51	2.01	2.438	2.166	2.567	3.461	2.002	2.646	2.2221
057_S_0839_40927_I80230.long.057_S_0839	2.193	2.219	2.301	1.672	3.187	2.456	2.268	2.436	2.036	1.941	2.413	1.778	2.248	2.348	2.354	2.132	2.173	2.381	2.095	1.463	1.999	2.429	2.345	2.149	2.575	2.065	2.47	2.02	2.434	2.262	2.523	3.44	2.002	2.736	2.22865
057_S_0839_8538_I103396.long.057_S_0839	2.267	2.192	2.258	1.612	3.329	2.549	2.265	2.567	2.045	1.971	2.401	1.813	2.21	2.41	2.434	2.148	2.123	2.315	1.973	1.361	1.977	2.359	2.249	2.097	2.581	2.041	2.443	1.913	2.473	2.188	2.533	3.516	2.005	2.764	2.21475
057_S_0839_7491_I124525.long.057_S_0839	2.315	2.166	2.33	1.545	3.215	2.555	2.343	2.55	2.092	1.995	2.482	1.724	2.26	2.455	2.509	2.041	2.239	2.44	2.2	1.334	2.046	2.352	2.441	2.158	2.647	2.132	2.51	2.047	2.45	2.298	2.588	3.459	1.958	2.71	2.26867
057_S_0839_5181_I166957.long.057_S_0839	2.195	2.163	2.261	1.57	3.037	2.531	2.248	2.483	1.999	2.036	2.378	1.782	2.19	2.358	2.379	2.077	2.145	2.398	2.09	1.413	1.936	2.373	2.315	2.097	2.615	2.073	2.493	1.953	2.406	2.218	2.496	3.488	2.095	2.613	2.21227
057_S_0941_19985_I34747.long.057_S_0941	2.203	2.085	2.238	1.696	3.098	2.106	2.028	2.426	1.733	1.964	2.25	1.737	2.031	2.485	2.363	2.299	2.286	2.423	2.31	1.481	1.991	2.203	2.316	1.923	2.379	1.994	2.345	1.928	2.357	2.24	2.196	3.113	2.279	2.68	2.15167
057_S_0941_30569_I64242.long.057_S_0941	2.173	2.219	2.212	1.622	3.062	2.128	2.016	2.525	1.705	1.928	2.409	1.681	2.175	2.586	2.426	2.149	2.27	2.499	2.335	1.339	1.861	2.178	2.199	1.82	2.502	1.979	2.355	1.811	2.339	2.225	2.342	3.192	2.14	2.719	2.13159
057_S_0941_42111_I82342.long.057_S_0941	2.138	2.036	2.152	1.65	2.839	2.106	1.985	2.407	1.682	1.907	2.268	1.702	2.078	2.435	2.452	2.217	2.283	2.463	2.299	1.531	1.866	2.102	2.264	1.912	2.389	1.978	2.301	1.885	2.307	2.155	2.291	3.166	2.397	2.635	2.11326
057_S_0941_9173_I109144.long.057_S_0941	2.056	2.161	2.026	1.533	2.584	1.797	1.888	2.32	1.567	1.747	2.306	1.51	2.025	2.412	2.207	1.826	2.233	2.525	2.289	1.258	1.734	2.083	2.12	1.655	2.327	1.914	2.259	1.693	2.221	2.071	2.116	3.134	2.154	2.598	1.99665
057_S_0941_7832_I125038.long.057_S_0941	1.966	2.254	2.018	1.564	2.486	1.836	1.852	2.247	1.589	1.772	2.338	1.537	2.021	2.357	2.333	2.054	2.154	2.508	2.244	1.264	1.711	2.084	2.027	1.716	2.419	1.912	2.195	1.612	2.166	2.044	2.138	3.097	2.166	2.599	1.98162
067_S_0045_10185_I35888.long.067_S_0045	2.224	2.13	2.113	1.766	2.814	2.455	2.053	2.503	2.243	1.989	2.562	1.655	2.295	2.556	2.669	1.9	2.505	2.284	2.183	1.362	1.553	2.477	1.937	1.989	2.658	2.055	2.24	1.847	2.468	2.127	2.3	2.925	2.033	2.779	2.13049
067_S_0045_16966_I34783.long.067_S_0045	2.186	2.085	2.124	1.691	2.767	2.46	1.981	2.478	2.317	1.958	2.504	1.673	2.175	2.439	2.501	1.89	2.436	2.31	2.291	1.38	1.597	2.491	1.934	1.996	2.469	2.017	2.196	1.823	2.274	2.145	2.209	2.885	1.758	2.879	2.10015
067_S_0243_12030_I34819.long.067_S_0243	2.428	2.783	2.27	1.767	2.895	2.558	2.215	2.586	2.274	1.958	2.254	1.895	2.296	2.623	2.449	2.182	2.378	2.138	1.937	1.339	1.774	2.301	2.389	2.095	2.418	1.71	2.323	1.912	2.622	2.174	2.055	3.438	2.416	3.028	2.20886
067_S_0243_29311_I64948.long.067_S_0243	2.222	2.646	2.225	1.804	3.049	2.452	2.118	2.375	2.271	1.973	2.127	1.859	2.18	2.451	2.167	2.136	2.315	2.124	2.021	1.467	1.739	2.235	2.366	2.074	2.344	1.682	2.294	1.869	2.532	2.13	2.146	3.467	2.333	2.972	2.15635
067_S_0336_14023_I34857.long.067_S_0336	1.938	2.193	2.085	1.632	2.707	2.126	1.942	2.177	2.391	1.866	2.183	1.733	1.953	2.405	2.23	1.829	2.203	2.382	2.057	1.319	1.757	2.176	2.126	1.882	2.362	2.09	2.217	1.962	2.151	2.148	2.294	2.739	1.845	2.566	2.04731
067_S_0336_23837_I64314.long.067_S_0336	1.835	2.189	2.116	1.573	2.644	2.039	1.833	2.071	2.351	1.851	2.162	1.739	1.985	2.262	2.095	1.815	2.146	2.302	2.115	1.328	1.756	2.178	2.068	1.824	2.459	2.067	2.191	1.852	2.092	2.07	2.21	2.675	1.855	2.547	2.00065
067_S_0336_32534_I85990.long.067_S_0336	1.844	2.16	2.151	1.576	2.516	1.978	1.823	1.979	2.291	1.754	2.168	1.678	1.863	2.228	2.093	1.865	2.304	2.302	2.162	1.334	1.772	2.228	2.13	1.841	2.409	2.1	2.207	1.898	2.067	2.138	2.202	2.798	1.881	2.501	1.99969
068_S_0442_14128_I65727.long.068_S_0442	2.299	2.533	2.483	1.523	3.126	2.403	2.289	2.652	2.165	1.927	2.366	1.609	2.234	2.677	2.752	2.301	2.259	2.516	2.155	1.344	1.761	2.459	2.202	2.06	2.572	2.242	2.638	2.045	2.654	2.253	2.769	3.542	1.98	2.882	2.25217
068_S_0442_26510_I69623.long.068_S_0442	2.36	2.499	2.312	1.649	3.039	2.213	2.024	2.44	2.111	2.036	2.266	1.651	2.062	2.53	2.53	2.034	2.183	2.478	2.043	1.466	1.69	2.325	2.097	1.931	2.421	2.031	2.409	1.95	2.605	2.015	2.641	3.376	1.944	2.774	2.13336
068_S_0442_34034_I72437.long.068_S_0442	2.362	2.552	2.305	1.463	3.093	2.39	2.169	2.608	2.043	1.776	2.221	1.564	2.108	2.645	2.728	1.985	2.114	2.391	1.984	1.222	1.683	2.34	1.978	1.931	2.443	2.047	2.497	1.871	2.59	2.147	2.622	3.37	1.894	2.755	2.12644
068_S_0476_14509_I63459.long.068_S_0476	2.327	3.111	2.134	1.596	3.737	2.381	2.046	2.559	2.019	1.718	2.671	1.774	2.623	2.692	2.842	2.17	2.445	2.473	2.422	1.453	1.665	2.532	2.184	1.954	3.068	2.051	2.34	1.774	2.426	2.147	2.455	3.948	2.12	3.144	2.18834
068_S_0476_16883_I37034.long.068_S_0476	2.38	3.088	2.14	1.759	3.703	2.336	2.046	2.388	1.971	1.824	2.658	1.968	2.588	2.56	2.889	2.487	2.362	2.367	2.32	1.693	1.961	2.435	2.37	2.118	3.092	2.05	2.318	1.896	2.449	2.181	2.482	3.987	2.27	2.931	2.23604
068_S_0476_23332_I70774.long.068_S_0476	2.309	3.04	2.148	1.749	3.613	2.386	2.029	2.37	2.068	1.847	2.577	1.974	2.636	2.583	2.895	2.539	2.358	2.333	2.226	1.66	1.861	2.609	2.276	2.098	3.021	2.095	2.33	1.867	2.519	2.13	2.52	4.135	2.455	2.925	2.23043
068_S_0476_5607_I130189.long.068_S_0476	2.151	2.72	2.103	1.61	3.225	2.206	1.968	2.35	1.832	1.68	2.479	1.746	2.584	2.479	2.598	2.205	2.345	2.397	2.277	1.529	1.663	2.351	2.162	1.874	2.975	2.024	2.379	1.742	2.31	2.022	2.428	3.798	2.154	3.07	2.11772
068_S_0476_1913_I120408.long.068_S_0476	2.154	2.808	2.129	1.744	3.275	2.232	1.943	2.163	1.987	1.763	2.499	1.881	2.675	2.272	2.674	2.476	2.337	2.244	2.245	1.634	1.946	2.407	2.35	2.033	3.072	1.994	2.264	1.854	2.273	2.011	2.539	3.677	2.283	2.915	2.15614
073_S_0909_19716_I75485.long.073_S_0909	2.559	2.885	2.376	1.736	3.09	2.611	2.271	2.728	2.675	1.954	2.518	1.859	2.641	2.728	2.626	2.501	2.369	2.877	2.531	1.47	2.061	2.816	2.469	2.286	2.974	2.397	2.807	1.997	2.854	2.371	2.845	3.684	2.486	3.062	2.41286
073_S_0909_35068_I75498.long.073_S_0909	2.496	2.866	2.504	1.804	2.949	2.641	2.328	2.739	2.541	2.021	2.509	1.911	2.661	2.696	2.577	2.527	2.388	2.71	2.487	1.604	2.201	2.77	2.619	2.301	3.098	2.45	2.803	2.159	2.845	2.457	2.787	3.583	2.514	3.03	2.45967
073_S_0909_42926_I85576.long.073_S_0909	2.43	2.894	2.494	1.69	2.897	2.646	2.242	2.753	2.57	1.937	2.573	1.874	2.748	2.695	2.754	2.393	2.447	2.789	2.511	1.483	1.924	2.84	2.455	2.292	3.159	2.397	2.807	1.98	2.805	2.328	2.782	3.511	2.449	3.046	2.40086
094_S_0434_13570_I39122.long.094_S_0434	2.094	2.086	2.257	1.665	2.738	2.668	2.173	2.493	2.282	1.921	2.454	1.817	2.397	2.473	2.425	2.19	2.509	2.385	2.139	1.277	1.908	2.456	2.351	2.125	2.678	2.179	2.529	2.025	2.538	2.365	2.458	3.857	2.464	2.657	2.25134
094_S_0434_22339_I39190.long.094_S_0434	1.893	2.138	1.902	1.5	2.584	2.545	1.928	2.25	2.077	1.912	2.279	1.714	2.156	2.13	2.249	1.883	2.133	2.414	1.954	1.2	1.586	2.368	1.802	1.917	2.43	1.93	2.132	1.78	2.219	2.021	1.85	3.229	1.86	2.674	1.99671
094_S_0434_32094_I65730.long.094_S_0434	1.921	2.081	2.158	1.638	2.559	2.514	1.934	2.285	2.142	1.824	2.371	1.724	2.313	2.18	2.324	2.089	2.288	2.424	2.152	1.239	1.771	2.41	2.066	2.043	2.54	2.078	2.482	1.922	2.346	2.112	2.032	3.653	2.102	2.653	2.1191
094_S_0434_42495_I85589.long.094_S_0434	1.991	2.05	2.262	1.569	2.528	2.454	2.013	2.265	2.08	1.825	2.336	1.714	2.275	2.219	2.199	1.992	2.435	2.345	2.076	1.222	1.827	2.423	2.304	2.02	2.541	2.077	2.534	1.951	2.346	2.239	2.194	3.486	2.263	2.599	2.14738
094_S_0434_0352_I107717.long.094_S_0434	2.065	2.069	2.223	1.602	2.417	2.503	2.033	2.248	2.117	1.917	2.359	1.761	2.257	2.202	2.266	1.992	2.476	2.462	2.153	1.203	1.762	2.446	2.211	2.027	2.518	2.107	2.522	1.884	2.428	2.26	2.136	3.441	2.357	2.538	2.15077
094_S_1015_21457_I40763.long.094_S_1015	1.911	2.346	2.244	1.46	3.049	2.074	1.818	2.308	1.897	1.87	2.525	1.614	2.187	2.34	2.31	2.065	2.249	2.471	2.357	1.178	1.662	2.103	2.181	1.789	2.66	2.027	2.507	1.799	2.358	2.059	2.889	3.23	1.643	2.682	2.07986
094_S_1015_32639_I68554.long.094_S_1015	1.822	2.35	1.94	1.479	2.849	1.962	1.733	2.137	1.905	1.826	2.18	1.599	1.918	2.194	2.201	1.875	2.016	2.441	1.94	1.193	1.609	1.985	1.662	1.77	2.486	1.827	2.16	1.671	2.185	1.794	2.362	3.29	1.59	2.491	1.89876
098_S_0269_11964_I65257.long.098_S_0269	2.405	2.876	2.287	1.563	2.78	2.143	2.167	2.787	2.457	1.761	2.68	1.716	2.471	2.764	2.95	2.378	2.787	2.602	2.36	1.499	1.961	2.609	2.469	2.11	2.912	2.286	2.525	1.762	2.609	2.457	2.725	3.502	2.594	2.866	2.30025
098_S_0269_20925_I89486.long.098_S_0269	2.365	2.833	2.285	1.477	2.828	2.042	2.091	2.717	2.409	1.68	2.666	1.579	2.462	2.695	2.837	2.349	2.736	2.638	2.397	1.367	1.888	2.492	2.359	2.036	2.946	2.228	2.495	1.622	2.573	2.373	2.627	3.365	2.509	2.807	2.23048
098_S_0269_29778_I67232.long.098_S_0269	2.051	2.974	1.989	1.429	2.818	1.906	1.777	2.672	2.336	1.553	2.668	1.535	2.395	2.498	2.736	2.188	2.211	2.584	2.188	1.239	1.665	2.566	2.107	1.915	2.644	2.053	2.216	1.424	2.329	1.983	2.476	3.203	1.785	2.71	2.03606
098_S_0269_41491_I80424.long.098_S_0269	2.034	2.862	1.749	1.389	2.528	1.848	1.687	2.621	2.214	1.482	2.505	1.504	2.315	2.46	2.645	1.976	2.2	2.624	2.163	1.185	1.573	2.53	1.847	1.877	2.913	1.916	2.172	1.337	2.349	1.802	2.356	3.113	1.899	2.656	1.94559
098_S_0269_8330_I102797.long.098_S_0269	2.112	2.795	2.055	1.348	2.603	1.864	1.63	2.662	2.127	1.475	2.573	1.501	2.323	2.502	2.606	1.995	2.278	2.563	2.273	1.215	1.709	2.43	2.049	1.757	2.478	2.033	2.146	1.371	2.319	1.908	2.112	3.123	1.831	2.682	1.98031
098_S_0269_5766_I148880.long.098_S_0269	2.248	2.729	2.235	1.436	2.465	1.919	2.028	2.518	2.162	1.629	2.636	1.577	2.357	2.511	2.447	2.331	2.643	2.538	2.305	1.475	1.955	2.4	2.52	2.008	2.784	2.208	2.424	1.623	2.418	2.23	2.688	3.306	2.324	2.74	2.17926
100_S_0892_20212_I66120.long.100_S_0892	2.442	2.554	2.472	1.607	3.08	2.55	2.25	3.078	2.16	2.011	2.55	1.735	2.532	2.811	2.002	2.145	2.8	2.836	2.281	1.336	2.063	2.387	2.357	1.958	2.801	2.361	2.653	2.042	2.752	2.458	2.861	3.559	2.535	2.812	2.36238
100_S_0892_30505_I80667.long.100_S_0892	2.399	2.43	2.445	1.566	2.946	2.554	2.171	3.017	2.161	1.956	2.535	1.739	2.461	2.765	1.955	2.118	2.697	2.692	2.22	1.379	2.019	2.353	2.321	1.905	2.802	2.3	2.59	2.029	2.737	2.444	2.833	3.531	2.51	2.714	2.31939
100_S_0892_5629_I166984.long.100_S_0892	2.177	2.129	2.233	1.518	2.514	2.15	2.034	2.715	1.77	1.728	2.262	1.506	2.158	2.532	1.618	2.067	2.563	2.536	2.13	1.341	1.858	2.068	2.248	1.733	2.537	2.119	2.333	1.828	2.541	2.259	2.531	3.399	2.409	2.637	2.12287
100_S_0930_19654_I66131.long.100_S_0930	2.256	2.37	2.169	1.78	2.784	2.132	2.117	2.415	1.747	1.755	2.521	1.699	2.213	2.566	2.11	2.154	2.337	2.565	2.115	1.462	2.007	2.217	2.256	1.961	2.747	2.251	2.421	1.974	2.737	2.327	2.715	3.668	2.418	2.856	2.20868
100_S_0930_30198_I72526.long.100_S_0930	2.271	2.392	2.18	1.771	2.698	2.081	2.102	2.415	1.82	1.739	2.509	1.714	2.216	2.55	2.081	2.147	2.245	2.464	2.057	1.466	2.018	2.243	2.208	1.959	2.691	2.237	2.422	1.964	2.719	2.259	2.682	3.472	2.384	2.77	2.19132
116_S_0752_18066_I59637.long.116_S_0752	2.501	2.823	2.34	1.736	1.939	2.446	1.998	2.393	2.272	1.985	2.589	1.79	2.27	2.47	2.17	2.208	2.618	2.637	2.397	1.317	1.88	2.362	2.353	2.122	2.542	2.217	2.61	1.92	2.441	2.382	2.966	2.627	2.15	2.882	2.23856
116_S_0752_26816_I86132.long.116_S_0752	2.467	2.634	2.269	1.789	2.03	2.321	2.015	2.306	2.161	1.982	2.557	1.801	2.286	2.469	2.102	2.279	2.528	2.482	2.338	1.427	1.985	2.266	2.326	2.144	2.561	2.184	2.569	1.986	2.416	2.365	2.96	2.872	2.155	2.919	2.23111
116_S_0752_37126_I74419.long.116_S_0752	2.428	2.741	2.263	1.692	1.896	2.286	1.901	2.245	2.208	1.892	2.49	1.753	2.203	2.315	2.192	2.168	2.537	2.457	2.32	1.258	1.865	2.458	2.315	2.085	2.545	2.21	2.549	1.885	2.344	2.28	2.908	2.604	1.983	2.831	2.17148
116_S_0752_45887_I98841.long.116_S_0752	2.495	2.661	2.311	1.653	1.828	2.281	1.882	2.224	2.151	1.854	2.497	1.761	2.222	2.279	2.049	2.121	2.594	2.551	2.359	1.343	1.88	2.26	2.171	2.051	2.507	2.197	2.493	1.8	2.376	2.311	2.961	2.563	1.996	2.835	2.14839
116_S_0752_5998_I123310.long.116_S_0752	2.368	2.689	2.046	1.699	1.84	2.259	1.812	2.161	2.206	1.819	2.524	1.744	2.274	2.227	1.9	2.025	2.58	2.526	2.365	1.338	1.802	2.29	2.164	1.969	2.564	2.169	2.411	1.731	2.285	2.231	3.177	2.44	1.954	2.862	2.10083
116_S_0752_0543_I174865.long.116_S_0752	2.356	2.786	2.084	1.632	1.78	2.235	1.831	2.177	2.07	1.79	2.321	1.724	2.222	2.219	2.052	2.1	2.544	2.414	2.277	1.294	1.832	2.364	2.121	1.995	2.412	2.114	2.451	1.798	2.265	2.221	2.872	2.449	1.978	2.798	2.08981
121_S_1350_27799_I68618.long.121_S_1350	2.247	2.321	2.165	1.443	2.746	2.311	1.974	2.526	1.676	1.864	2.362	1.556	2.192	2.262	2.854	2.066	2.226	2.461	2.163	1.176	1.805	2.143	2.29	1.841	2.501	2.042	2.255	1.802	2.542	1.998	2.184	3.598	1.673	2.574	2.09293
121_S_1350_39568_I98854.long.121_S_1350	1.95	2.134	2.01	1.402	2.15	2.043	1.699	2.153	1.507	1.702	2.175	1.459	1.87	2.087	2.653	1.692	2.055	2.366	1.928	1.123	1.639	1.801	1.985	1.586	2.145	1.84	2.012	1.603	2.353	1.775	2.101	3.528	1.555	2.418	1.87321
123_S_0390_13099_I64430.long.123_S_0390	2.098	2.246	2.154	1.593	3.513	2.319	1.986	2.687	1.979	1.822	2.444	1.608	2.313	2.747	2.411	1.88	2.316	2.337	2.191	1.244	1.715	2.241	1.94	2.036	2.656	2.044	2.194	1.703	2.593	2.143	2.213	3.604	2.203	2.909	2.1086
123_S_0390_22989_I66712.long.123_S_0390	2.333	2.2	2.244	1.653	3.376	2.347	2.191	2.557	2.082	1.869	2.515	1.632	2.375	2.627	2.408	2.156	2.32	2.4	2.184	1.283	1.864	2.229	2.133	2.113	2.621	2.101	2.429	1.897	2.596	2.233	2.512	3.638	2.279	2.925	2.19702
123_S_0390_31708_I66717.long.123_S_0390	2.267	2.156	2.254	1.707	3.376	2.385	2.178	2.569	2.05	1.933	2.539	1.637	2.317	2.591	2.454	2.243	2.302	2.431	2.173	1.333	1.926	2.198	2.096	2.17	2.609	2.084	2.437	1.865	2.651	2.261	2.319	3.657	2.173	2.934	2.20495
123_S_0390_42979_I85612.long.123_S_0390	2.152	2.171	2.184	1.576	3.447	2.25	2.141	2.521	1.902	1.731	2.54	1.566	2.318	2.506	2.406	2.052	2.268	2.403	2.191	1.244	1.747	2.223	1.983	2.05	2.635	2.021	2.38	1.719	2.674	2.19	2.232	3.607	2.171	2.937	2.12314
123_S_0390_9925_I106537.long.123_S_0390	2.123	2.223	2.187	1.485	3.401	2.246	2.07	2.458	1.961	1.719	2.468	1.582	2.23	2.505	2.472	2.042	2.223	2.226	2.205	1.237	1.699	2.206	1.906	2.024	2.601	2.001	2.27	1.677	2.613	2.125	2.104	3.554	2.036	2.916	2.08102
126_S_0865_22295_I39028.long.126_S_0865	2.651	2.426	2.536	2.016	3.475	2.696	2.515	2.62	2.002	2.43	2.56	2.034	2.172	2.993	2.739	2.244	2.535	2.664	2.478	1.669	1.873	2.145	2.238	2.388	2.514	2.177	2.53	2.406	2.823	2.374	2.793	4.039	2.543	2.912	2.43105
126_S_0865_32688_I79382.long.126_S_0865	2.774	2.52	2.545	1.967	3.371	2.769	2.556	2.679	2.01	2.224	2.596	1.945	2.136	3.018	2.804	2.063	2.383	2.798	2.353	1.658	1.856	2.099	2.138	2.402	2.593	2.169	2.524	2.407	2.841	2.359	2.906	3.768	2.595	2.799	2.40492
126_S_0865_42612_I85636.long.126_S_0865	2.634	2.458	2.136	1.855	3.56	2.749	2.33	2.692	2.071	2.222	2.577	2.003	2.101	2.984	2.755	2.066	2.222	2.662	2.296	1.5	1.795	2.124	1.932	2.346	2.445	2.066	2.427	2.261	2.799	2.203	2.782	3.779	2.308	2.837	2.31803
126_S_0865_1784_I112341.long.126_S_0865	2.673	2.474	2.543	2.063	3.379	2.759	2.533	2.637	2.021	2.404	2.613	1.978	2.24	2.963	2.752	2.144	2.431	2.756	2.365	1.582	1.895	2.012	2.098	2.391	2.561	2.154	2.505	2.443	2.771	2.377	2.843	3.954	2.464	2.799	2.41068
126_S_0865_0297_I129615.long.126_S_0865	2.689	2.313	2.589	1.951	3.449	2.645	2.493	2.587	1.914	2.233	2.522	1.936	2.126	2.964	2.618	2.017	2.41	2.77	2.345	1.553	1.807	2.028	2.125	2.324	2.447	2.079	2.477	2.433	2.779	2.321	2.782	4.12	2.393	2.775	2.3608
126_S_0865_7294_I165352.long.126_S_0865	2.659	2.426	2.412	1.991	3.294	2.669	2.444	2.673	1.892	2.241	2.583	1.92	2.206	2.919	2.707	2.195	2.46	2.586	2.325	1.626	1.777	2.113	2.094	2.392	2.613	2.025	2.524	2.361	2.75	2.295	2.082	3.872	2.291	2.872	2.35916
126_S_1077_23496_I48880.long.126_S_1077	2.182	2.573	1.948	1.492	3.416	2.692	2.169	2.817	2.057	1.997	2.495	1.689	2.373	2.595	2.501	1.925	2.117	2.48	2.05	1.192	1.413	2.252	1.861	2.01	3.159	1.995	2.304	1.695	2.405	2.161	2.807	3.587	1.867	2.532	2.10888
126_S_1077_33911_I72333.long.126_S_1077	2.188	2.594	1.923	1.595	3.475	2.643	2.119	2.751	1.951	1.916	2.544	1.695	2.409	2.573	2.352	1.94	2.194	2.525	2.159	1.371	1.444	2.241	1.903	1.932	2.971	2.008	2.361	1.732	2.458	2.216	2.726	3.781	1.638	2.56	2.11884
126_S_1077_2616_I122350.long.126_S_1077	2.301	2.558	2.114	1.739	3.485	2.699	2.253	2.834	1.937	2.059	2.519	1.739	2.385	2.606	2.439	2.107	2.325	2.584	2.246	1.377	1.605	2.351	2.107	2.096	2.956	2.067	2.461	1.951	2.506	2.337	2.713	3.747	1.902	2.692	2.22888
126_S_1077_0855_I132442.long.126_S_1077	2.288	2.517	2.109	1.574	3.358	2.694	2.287	2.879	1.992	2.035	2.473	1.725	2.358	2.58	2.388	2.131	2.292	2.408	2.135	1.271	1.535	2.288	2.1	2.055	2.974	2.063	2.483	1.909	2.432	2.258	2.763	3.63	1.764	2.537	2.19515
126_S_1077_7219_I167030.long.126_S_1077	2.083	2.524	1.86	1.576	3.542	2.579	1.889	2.721	2.061	1.791	2.543	1.703	2.426	2.457	2.422	1.863	2.189	2.42	2.172	1.329	1.405	2.278	1.833	1.886	2.938	1.959	2.302	1.625	2.429	2.135	2.712	3.804	1.781	2.597	2.06122
126_S_1077_7220_I167034.long.126_S_1077	2.083	2.472	1.949	1.634	3.476	2.561	1.875	2.681	2.03	1.849	2.531	1.755	2.381	2.482	2.376	1.913	2.241	2.348	2.158	1.352	1.452	2.238	1.781	1.887	2.93	1.986	2.286	1.719	2.371	2.084	2.655	3.913	1.825	2.587	2.06887
127_S_0394_14603_I34398.long.127_S_0394	2.102	2.519	2.011	1.491	2.706	1.838	1.747	2.123	2.01	1.724	2.397	1.577	2.333	2.158	2.359	1.574	2.221	2.382	2.126	1.141	1.613	2.064	1.98	1.691	2.506	2.009	2.181	1.51	2.488	1.938	2.02	4.052	1.991	2.506	1.959
127_S_0394_24665_I63592.long.127_S_0394	2.167	2.639	1.875	1.505	3.021	1.924	1.617	2.09	1.968	1.741	2.268	1.611	2.361	2.103	2.297	1.641	1.896	2.099	1.72	1.137	1.457	1.993	1.647	1.654	2.542	1.874	1.945	1.369	2.414	1.723	1.833	3.994	1.888	2.489	1.85211
127_S_0394_34198_I79391.long.127_S_0394	1.976	2.486	1.921	1.565	2.637	1.665	1.63	2.02	1.897	1.693	2.422	1.564	2.239	1.984	2.304	1.744	2.093	2.327	2.124	1.119	1.564	2.082	1.803	1.726	2.491	2.09	2.1	1.496	2.446	1.887	2.536	4.034	2.008	2.543	1.91139
127_S_0394_44451_I89769.long.127_S_0394	1.903	2.523	1.898	1.641	2.668	1.697	1.604	1.919	1.892	1.725	2.431	1.584	2.452	1.987	2.228	1.578	2.063	2.237	2.004	1.187	1.535	2.11	1.878	1.599	2.626	1.915	2.154	1.512	2.397	1.79	1.927	3.932	1.76	2.412	1.88759
127_S_0394_2669_I123776.long.127_S_0394	1.985	2.426	1.665	1.509	2.552	1.623	1.521	1.941	1.913	1.693	2.133	1.522	2.023	1.851	1.946	1.491	1.711	2.001	1.784	1.132	1.45	1.858	1.632	1.524	2.074	1.78	1.855	1.384	2.194	1.664	2.011	3.705	2.142	2.373	1.74306
127_S_0394_8492_I160164.long.127_S_0394	1.968	2.509	1.699	1.528	2.615	1.657	1.51	1.986	1.848	1.724	2.262	1.526	2.257	1.84	2.134	1.517	1.966	2.2	1.877	1.129	1.398	1.963	1.597	1.507	2.397	1.834	1.865	1.375	2.287	1.699	1.929	3.819	2.054	2.453	1.77668
128_S_0227_12277_I68711.long.128_S_0227	1.964	2.402	2.137	1.647	2.501	2.34	2.081	2.599	2.113	1.925	2.44	1.771	2.076	2.754	2.179	2.17	2.227	2.42	2.012	1.411	1.671	2.23	1.851	2.105	2.814	2.017	2.304	1.836	2.388	2.151	2.02	2.576	2.52	2.559	2.11276
128_S_0227_20436_I68722.long.128_S_0227	2.284	2.467	2.598	1.826	3.077	2.456	2.296	2.658	2.099	2.021	2.43	1.864	2.115	2.75	2.083	2.191	2.552	2.559	2.193	1.422	1.922	2.194	2.304	2.178	2.785	2.15	2.454	2.079	2.413	2.423	2.389	2.485	2.667	2.601	2.26711
128_S_0227_31723_I69643.long.128_S_0227	2.299	2.437	2.561	1.776	3.01	2.471	2.32	2.606	2.105	1.972	2.449	1.86	2.127	2.723	2.296	2.297	2.563	2.561	2.199	1.398	1.948	2.165	2.284	2.231	2.964	2.136	2.461	2.082	2.408	2.433	2.531	2.482	2.743	2.632	2.27144
128_S_0227_44359_I89883.long.128_S_0227	2.225	2.399	2.456	1.785	2.941	2.397	2.255	2.568	2.023	1.976	2.457	1.816	2.098	2.673	2.172	2.307	2.377	2.496	2.059	1.527	1.775	2.153	2.122	2.204	2.686	2.003	2.392	2.079	2.391	2.26	2.494	2.412	2.54	2.623	2.20569
128_S_0227_8841_I103497.long.128_S_0227	2.166	2.432	2.181	1.743	2.81	2.317	2.207	2.481	2.046	1.919	2.422	1.844	2.013	2.668	2.074	2.099	2.344	2.48	2.118	1.46	1.767	2.145	1.933	2.143	2.7	1.997	2.336	1.962	2.393	2.312	2.296	2.315	2.466	2.659	2.15167
128_S_0258_12928_I68879.long.128_S_0258	2.291	2.584	2.539	1.667	3.235	2.446	2.221	2.637	2.175	2.049	2.244	1.74	2.046	2.599	2.293	2.182	2.461	2.116	2.197	1.519	1.821	2.369	2.424	2.186	2.508	2.065	2.587	2.126	2.47	2.246	2.439	3.215	2.293	2.745	2.26367
128_S_0258_31715_I69652.long.128_S_0258	2.357	2.445	2.535	1.796	3.455	2.533	2.232	2.668	2.244	1.944	2.244	1.756	2.138	2.636	2.433	2.329	2.467	2.134	2.266	1.599	1.844	2.392	2.437	2.19	2.566	2.008	2.552	1.933	2.465	2.311	2.357	3.266	2.252	2.792	2.266
128_S_0258_42643_I90592.long.128_S_0258	2.236	2.323	2.327	1.74	3.229	2.449	1.936	2.541	2.115	1.843	2.158	1.69	1.973	2.505	2.352	2.258	2.24	2.017	2.13	1.498	1.68	2.292	2.224	2.174	2.419	1.899	2.415	1.928	2.434	1.987	2.203	3.289	2.18	2.677	2.13561
128_S_0258_1260_I109722.long.128_S_0258	2.318	2.374	2.411	1.659	3.096	2.289	1.99	2.447	2.11	1.791	2.17	1.629	1.958	2.449	2.266	2.204	2.4	1.956	2.174	1.412	1.79	2.305	2.301	2.013	2.504	1.823	2.414	1.693	2.348	2.204	2.18	3.17	2.073	2.679	2.11388
128_S_0611_15376_I69032.long.128_S_0611	2.497	2.816	2.124	1.625	3.104	2.453	2.031	2.535	2.324	1.918	2.132	1.67	2.141	2.549	1.997	2.001	2.178	2.274	2.162	1.423	1.675	2.254	2.07	1.938	2.813	1.96	2.344	1.742	2.519	2.318	2.054	3.236	2.335	2.624	2.12161
128_S_0611_25555_I69690.long.128_S_0611	2.512	2.792	2.124	1.704	3.365	2.476	2.001	2.574	2.378	1.883	2.201	1.691	2.226	2.59	2.078	2.193	2.192	2.5	2.296	1.516	1.677	2.454	2.204	2.079	2.469	1.882	2.403	1.795	2.565	2.257	2.189	3.295	2.346	2.618	2.1589
128_S_0611_33240_I69699.long.128_S_0611	2.413	2.757	2.254	1.802	3.274	2.487	2.154	2.527	2.339	1.972	2.161	1.732	2.26	2.516	1.958	2.312	2.319	2.442	2.277	1.641	1.879	2.388	2.38	2.122	2.415	1.982	2.462	2.009	2.455	2.348	2.224	3.228	2.508	2.642	2.22837
128_S_0611_44304_I89897.long.128_S_0611	2.475	2.633	2.155	1.719	3.002	2.378	2.018	2.401	2.177	1.874	2.146	1.633	2.117	2.509	1.835	2.238	2.304	2.411	2.212	1.481	1.759	2.359	2.173	1.972	2.417	1.923	2.34	1.803	2.468	2.224	2.141	3.084	2.407	2.576	2.1211
128_S_0947_19859_I69073.long.128_S_0947	2.329	2.679	2.226	1.571	3.111	2.484	1.982	2.628	2.215	1.778	2.336	1.954	2.339	2.622	2.598	2.024	2.282	2.572	2.011	1.323	1.818	2.527	2.15	2.049	2.367	1.957	2.309	1.801	2.291	2.106	2.579	3.271	1.881	2.582	2.1364
128_S_0947_29901_I69086.long.128_S_0947	2.319	2.707	2.298	1.564	3.041	2.556	2.06	2.686	2.183	1.815	2.378	1.928	2.44	2.668	2.624	2.061	2.304	2.498	2.132	1.344	1.805	2.529	2.252	2.101	2.37	2.048	2.372	1.884	2.351	2.133	2.553	3.17	2.057	2.568	2.18495
128_S_0947_42240_I90605.long.128_S_0947	2.347	2.578	2.217	1.639	2.715	2.434	2.054	2.63	2.094	1.832	2.239	1.922	2.289	2.554	2.479	2.003	2.299	2.455	2.037	1.451	1.758	2.503	2.146	2.047	2.357	1.974	2.298	1.793	2.269	2.095	2.477	3.115	1.965	2.631	2.12797
130_S_0423_15030_I39132.long.130_S_0423	2.468	2.366	2.448	1.532	1.981	2.522	2.291	2.696	2.478	1.986	2.423	1.784	2.152	2.654	1.484	2.187	2.597	2.601	2.197	1.294	1.772	2.221	2.317	2.156	2.647	2.339	2.588	1.937	2.507	2.351	2.657	2.831	2.091	2.73	2.26469
130_S_0423_26304_I86111.long.130_S_0423	2.473	2.318	2.431	1.625	1.916	2.565	2.273	2.701	2.497	1.981	2.368	1.84	2.143	2.643	1.379	2.235	2.643	2.632	2.187	1.314	1.784	2.251	2.276	2.121	2.568	2.354	2.579	1.999	2.518	2.343	2.665	2.779	2.113	2.637	2.26608
130_S_0423_38067_I75318.long.130_S_0423	2.359	2.193	2.429	1.519	1.993	2.472	2.209	2.595	2.475	1.911	2.388	1.773	2.131	2.595	1.426	2.258	2.594	2.579	2.227	1.334	1.724	2.222	2.333	2.109	2.531	2.296	2.576	1.928	2.473	2.317	2.649	2.808	2.131	2.681	2.23165
132_S_0987_28506_I83166.long.132_S_0987	2.025	2.724	2.153	1.449	2.481	2.256	1.837	2.164	1.808	1.713	2.002	1.616	2.026	2.1	2.344	2.03	1.974	2.088	1.657	1.206	1.691	2.145	2.021	1.905	2.519	1.726	1.965	1.744	2.282	1.888	2.181	3.298	1.804	2.606	1.92874
132_S_0987_41898_I83173.long.132_S_0987	2.212	2.627	2.181	1.492	2.376	2.204	1.937	2.132	1.905	1.777	2.058	1.597	2.041	2.157	2.328	1.941	2.125	2.174	1.827	1.233	1.664	2.072	2.191	1.924	2.41	1.861	2.044	1.793	2.328	2.002	1.99	3.33	2.078	2.674	1.98549
132_S_0987_0300_I107726.long.132_S_0987	1.986	2.562	1.839	1.366	2.368	2.203	1.71	2.098	1.817	1.736	1.99	1.586	1.893	2.083	2.489	1.775	1.937	1.902	1.678	1.179	1.508	1.962	1.713	1.69	2.327	1.683	1.862	1.562	2.258	1.734	2.14	3.321	1.753	2.536	1.81912
133_S_0913_24646_I63819.long.133_S_0913	1.706	2.453	2.215	1.717	3.089	2.555	1.843	2.396	2.224	1.94	2.406	1.773	2.371	2.201	2.54	2.023	2.084	2.453	2.22	1.325	1.887	2.013	2.34	1.824	2.934	1.923	2.389	1.719	2.416	2.156	2.399	3.65	2.423	2.648	2.11509
133_S_0913_35319_I92637.long.133_S_0913	1.66	2.319	2.082	1.577	2.853	2.49	1.668	2.327	2.116	1.764	2.287	1.656	2.24	2.139	2.625	1.998	1.801	2.327	2.02	1.192	1.721	1.952	2.107	1.794	2.923	1.87	2.301	1.642	2.415	1.978	2.423	3.708	2.012	2.601	2.00333
133_S_0913_44748_I99113.long.133_S_0913	1.617	2.337	2.017	1.622	3.026	2.476	1.669	2.341	2.096	1.788	2.389	1.708	2.364	2.048	2.677	2.068	1.93	2.41	2.124	1.276	1.808	1.838	2.154	1.731	2.928	1.793	2.271	1.666	2.385	2.072	2.255	3.409	2.191	2.627	2.01585
136_S_0195_12523_I40452.long.136_S_0195	2.473	2.535	2.51	1.7	3.337	2.374	2.171	2.59	2.024	1.901	2.379	1.871	2.081	2.564	2.678	2.145	2.497	2.48	2.205	1.482	1.856	2.193	2.115	2.04	2.739	2.12	2.586	1.965	2.6	2.368	2.461	3.701	2.598	2.971	2.24666
136_S_0195_19599_I91201.long.136_S_0195	2.509	2.517	2.446	1.691	3.257	2.351	2.129	2.55	2.04	1.933	2.359	1.88	2.028	2.56	2.65	2.212	2.399	2.434	2.092	1.359	1.878	2.227	2.222	2.044	2.661	2.078	2.558	1.902	2.613	2.334	2.408	3.739	2.447	2.978	2.23336
136_S_0195_29004_I81596.long.136_S_0195	2.496	2.469	2.395	1.668	3.166	2.23	2.135	2.547	1.923	1.95	2.339	1.884	2.063	2.477	2.588	2.115	2.386	2.405	2.173	1.48	1.869	2.181	2.161	2.015	2.648	2.17	2.548	1.949	2.614	2.357	2.512	3.631	2.469	3.03	2.22852
136_S_0873_19616_I96178.long.136_S_0873	2.073	2.359	2.091	1.402	3.501	2.151	1.841	2.192	2.097	1.507	2.208	1.573	2.029	2.47	2.409	1.932	2.143	2.431	2.005	1.283	1.603	2.076	1.862	1.872	2.685	1.863	2.152	1.48	2.315	1.912	2.049	3.191	2.125	2.811	1.95274
136_S_0873_30555_I89821.long.136_S_0873	2.234	2.477	2.254	1.487	3.154	2.057	1.979	2.127	2.121	1.508	2.341	1.532	2.112	2.376	2.321	2.096	2.16	2.409	2.01	1.308	1.649	2.145	2.031	1.991	2.715	1.941	2.391	1.599	2.376	2.026	2.192	3.304	2.366	2.83	2.03113
136_S_0873_41982_I88174.long.136_S_0873	2.117	2.476	2.212	1.371	2.687	2.087	1.884	2.222	2.018	1.441	2.269	1.528	2.09	2.364	2.294	1.975	2.102	2.365	2.017	1.227	1.609	2.156	1.946	1.819	2.665	1.933	2.282	1.499	2.303	1.985	2.156	3.201	2.427	2.744	1.97009
136_S_0873_8954_I105828.long.136_S_0873	1.992	2.414	2.058	1.392	2.429	2.043	1.788	2.179	2.024	1.453	2.134	1.513	1.949	2.27	2.237	2.032	2.094	2.397	1.954	1.231	1.488	2.064	1.813	1.859	2.644	1.806	2.189	1.525	2.243	1.845	2.08	3.043	2.336	2.759	1.90729
136_S_0873_8049_I125929.long.136_S_0873	2.258	2.434	2.21	1.348	2.627	1.959	1.883	2.159	2.047	1.437	2.218	1.523	2.046	2.424	2.205	1.946	2.237	2.542	2.14	1.249	1.569	2.075	1.887	1.803	2.764	1.994	2.276	1.47	2.349	2.036	2.18	3.108	2.44	2.745	1.96914
136_S_0874_22234_I40419.long.136_S_0874	2.287	2.802	2.146	1.764	2.952	2.463	2.033	3.094	2.233	1.993	2.602	1.752	2.296	2.608	2.279	2.398	2.381	2.488	2.018	1.385	1.991	2.389	2.237	2.06	2.408	1.968	2.561	2.029	2.643	2.404	2.661	3.894	2.523	3.091	2.2535
136_S_0874_33049_I66815.long.136_S_0874	2.524	2.7	2.408	1.828	2.979	2.435	2.255	3.069	2.217	2.052	2.558	1.766	2.257	2.559	2.242	2.436	2.542	2.465	2.071	1.381	2.182	2.337	2.5	2.232	2.535	2.031	2.634	2.305	2.647	2.541	2.684	3.809	2.544	3.001	2.34877
136_S_0874_42871_I85659.long.136_S_0874	2.406	2.691	2.239	1.658	2.973	2.415	2.03	3.012	2.2	1.929	2.576	1.671	2.277	2.519	2.164	2.377	2.428	2.563	2.047	1.257	2.068	2.384	2.341	2.215	2.482	2.015	2.587	2.186	2.599	2.506	2.578	3.794	2.503	2.961	2.2684
141_S_0915_22748_I48563.long.141_S_0915	2.114	2.674	2.022	1.48	2.218	2.096	1.742	2.234	2.045	1.757	2.336	1.518	2.269	2.507	2.42	2.006	2.072	2.666	2.193	1.208	1.697	2.137	1.877	1.917	2.795	2.1	2.37	1.592	2.299	2.158	2.526	2.866	1.916	2.415	2.02526
141_S_0915_33555_I78645.long.141_S_0915	1.957	2.6	2.038	1.461	2.007	1.902	1.656	2.183	2.06	1.731	2.287	1.524	2.147	2.352	2.282	1.805	2.076	2.641	2.14	1.213	1.691	2.086	1.949	1.779	2.808	1.989	2.261	1.535	2.146	2.053	2.562	2.63	1.931	2.364	1.95451
141_S_0915_42828_I85683.long.141_S_0915	2.131	2.741	2.14	1.537	2.203	1.958	1.85	2.168	2.104	1.853	2.41	1.494	2.178	2.442	2.262	1.995	2.167	2.555	2.2	1.261	1.802	2.176	2.162	1.982	2.772	2.109	2.379	1.734	2.259	2.243	2.57	2.834	2.053	2.445	2.07441
141_S_0982_22644_I47703.long.141_S_0982	2.157	2.69	2.364	1.771	3.165	2.735	2.229	2.837	2.117	2.22	2.526	1.981	2.355	2.695	2.363	2.447	2.32	2.478	2.17	1.408	2.226	2.273	2.508	2.166	2.483	2.118	2.561	1.934	2.536	2.242	2.409	3.496	2.247	2.559	2.32578
141_S_0982_33549_I91271.long.141_S_0982	2.209	2.663	2.311	1.816	2.969	2.593	2.246	2.771	2.066	2.11	2.471	1.955	2.228	2.612	2.268	2.347	2.31	2.484	2.169	1.475	2.204	2.195	2.505	2.158	2.373	2.09	2.505	2.033	2.455	2.308	2.27	3.49	2.164	2.558	2.29583
141_S_0982_42653_I91294.long.141_S_0982	2.207	2.672	2.383	1.804	3.073	2.654	2.306	2.79	2.083	2.147	2.518	1.989	2.296	2.667	2.268	2.393	2.34	2.502	2.204	1.413	2.265	2.28	2.482	2.183	2.391	2.105	2.492	2.061	2.487	2.315	2.387	3.517	2.128	2.512	2.32026
141_S_1244_26845_I92646.long.141_S_1244	2.037	2.258	2.034	1.666	3.072	2.031	1.794	2.137	1.582	1.774	2.249	1.674	2.066	2.193	1.977	1.717	2.115	2.062	2.017	1.308	1.689	2.077	1.881	1.801	2.592	1.917	2.143	1.694	2.104	1.973	1.884	3.366	1.758	2.521	1.94172
141_S_1244_39057_I79106.long.141_S_1244	2.069	2.225	2.025	1.671	3.221	2.031	1.749	2.069	1.486	1.742	2.207	1.698	2.024	2.22	1.898	1.684	2.153	2.074	2.009	1.218	1.684	1.966	1.821	1.729	2.444	1.886	2.118	1.654	2.177	1.96	2.253	3.309	1.861	2.536	1.92023
941_S_1295_26290_I63888.long.941_S_1295	2.405	2.314	2.387	1.927	3.161	2.494	2.252	2.559	2.188	1.923	2.272	1.835	2.143	2.554	2.231	2.299	2.339	2.343	2.229	1.519	2.028	2.373	2.343	2.226	2.733	2.091	2.467	1.967	2.493	2.175	2.578	3.16	2.392	2.754	2.25658
941_S_1295_38113_I89827.long.941_S_1295	2.4	2.314	2.375	1.814	3.138	2.497	2.247	2.582	2.084	1.959	2.297	1.841	2.065	2.552	2.218	2.219	2.272	2.267	2.185	1.514	1.989	2.374	2.072	2.24	2.547	2.109	2.433	1.967	2.473	2.216	2.519	2.982	2.294	2.787	2.22979
941_S_1295_5618_I122395.long.941_S_1295	2.321	2.277	2.313	1.721	2.869	2.368	2.181	2.462	2.033	1.856	2.212	1.802	2.008	2.473	2.13	2.239	2.312	2.2	2.154	1.394	1.989	2.335	2.245	2.166	2.556	2.069	2.397	1.909	2.407	2.139	2.558	2.908	2.229	2.684	2.18101
941_S_1363_28008_I63897.long.941_S_1363	2.309	2.605	2.192	1.687	3.73	2.627	2.237	2.738	2.444	1.987	2.419	1.885	2.443	2.685	2.956	2.153	2.349	2.791	2.41	1.35	1.944	2.676	2.285	2.186	2.776	2.181	2.627	1.961	2.728	2.306	2.672	3.693	2.492	2.936	2.32369
