fsid fsid-base years Age sex MMSE GDS CDR diagnose APOE_A1 APOE_A2
002_S_0782_17835_I40717 002_S_0782 0 81.7068 M 29 1 0.5 MCI 3 3
002_S_0782_29564_I60456 002_S_0782 0.657600000000002 82.3644 M 30 -1 0.5 MCI 3 3
002_S_0782_39495_I87283 002_S_0782 1.09869999999999 82.8055 M 28 3 0.5 MCI 3 3
002_S_0782_1854_I112184 002_S_0782 1.8466 83.5534 M 29 -1 0.5 MCI 3 3
002_S_0782_7626_I124718 002_S_0782 2.1781 83.8849 M 26 1 0.5 MCI 3 3
002_S_0782_3356_I162978 002_S_0782 3.0603 84.7671 M 28 2 0.5 MCI 3 3
003_S_1074_23536_I53395 003_S_1074 0 85.2329 F 28 0 0.5 LMCI 3 3
003_S_1074_45438_I91404 003_S_1074 1.1781 86.411 F 29 0 0.5 LMCI 3 3
003_S_1074_5525_I121117 003_S_1074 1.70959999999999 86.9425 F 29 -1 0.5 LMCI 3 3
003_S_1074_3680_I141167 003_S_1074 2.2329 87.4658 F 29 1 0.5 LMCI 3 3
005_S_0324_12599_I32891 005_S_0324 0 75.3534 F 24 0 0.5 MCI 3 3
005_S_0324_22465_I86025 005_S_0324 0.624700000000004 75.9781 F 26 -1 0.5 MCI 3 3
005_S_0324_31698_I62599 005_S_0324 1.0959 76.4493 F 27 1 0.5 MCI 3 3
005_S_0324_42427_I83334 005_S_0324 1.611 76.9644 F 22 -1 0.5 MCI 3 3
005_S_0324_9114_I104357 005_S_0324 2.06580000000001 77.4192 F 24 2 0.5 MCI 3 3
005_S_0324_8167_I150214 005_S_0324 3.17540000000001 78.5288 F 26 1 0.5 MCI 3 3
005_S_0448_14032_I32875 005_S_0448 0 85.7288 M 26 1 0.5 LMCI 3 3
005_S_0448_22540_I67876 005_S_0448 0.534199999999998 86.263 M 26 -1 0.5 LMCI 3 3
005_S_0448_34996_I72141 005_S_0448 1.1917 86.9205 M 28 1 0.5 LMCI 3 3
005_S_0448_43581_I86930 005_S_0448 1.60539999999999 87.3342 M 26 -1 0.5 LMCI 3 3
005_S_0448_0865_I109178 005_S_0448 2.0822 87.811 M 30 1 0.5 LMCI 3 3
010_S_0422_23188_I63332 010_S_0422 0 62.1808 M 29 1 0.5 MCI 3 3
010_S_0422_29319_I71332 010_S_0422 0.320599999999999 62.5014 M 29 -1 0.5 MCI 3 3
010_S_0422_40797_I78765 010_S_0422 0.827400000000004 63.0082 M 30 1 0.5 MCI 3 3
010_S_0422_7622_I102459 010_S_0422 1.3233 63.5041 M 30 -1 0.5 MCI 3 3
010_S_0422_6769_I124040 010_S_0422 1.8247 64.0055 M 29 1 0.5 MCI 3 3
010_S_0422_9063_I205476 010_S_0422 2.7425 64.9233 M 28 1 0 MCI 3 3
014_S_0169_11565_I40858 014_S_0169 0 72.0658 F 29 2 0.5 LMCI 3 4
014_S_0169_18247_I45726 014_S_0169 0.542400000000001 72.6082 F 28 -1 0 LMCI 3 4
014_S_0169_27032_I76583 014_S_0169 1.04100000000001 73.1068 F 29 4 0 LMCI 3 4
014_S_0169_38713_I79153 014_S_0169 1.55890000000001 73.6247 F 28 -1 0.5 LMCI 3 4
014_S_0169_46391_I96079 014_S_0169 2.0575 74.1233 F 28 1 0.5 LMCI 3 4
014_S_0169_3458_I138094 014_S_0169 3.04650000000001 75.1123 F 27 1 0.5 LMCI 3 4
016_S_1092_3827_I101411 016_S_1092 0 74.4356 M 26 1 0.5 MCI 4 4
016_S_1092_35878_I76592 016_S_1092 0.594500000000011 75.0301 M 29 -1 0.5 MCI 4 4
016_S_1092_4767_I121366 016_S_1092 1.6384 76.074 M 30 -1 0 MCI 4 4
016_S_1092_2443_I135586 016_S_1092 2.13430000000001 76.5699 M 29 2 0 MCI 4 4
016_S_1092_7272_I205492 016_S_1092 3.0137 77.4493 M 24 1 0 MCI 4 4
018_S_0142_10989_I36886 018_S_0142 0 79.2712 M 29 0 0.5 LMCI 3 4
018_S_0142_18255_I34999 018_S_0142 0.597300000000004 79.8685 M 29 -1 0.5 LMCI 3 4
018_S_0142_26622_I65938 018_S_0142 1.0767 80.3479 M 30 1 0.5 LMCI 3 4
018_S_0142_37088_I74245 018_S_0142 1.55350000000001 80.8247 M 28 -1 0.5 LMCI 3 4
018_S_0142_46542_I99058 018_S_0142 2.12060000000001 81.3918 M 30 1 0.5 LMCI 3 4
018_S_0142_2954_I137228 018_S_0142 3.06580000000001 82.337 M 30 1 0.5 LMCI 3 4
021_S_0178_11567_I33799 021_S_0178 0 64.9068 M 29 0 0.5 LMCI 3 3
021_S_0273_12168_I33428 021_S_0273 0 62.926 M 30 3 0.5 MCI 2 3
021_S_0273_19838_I33692 021_S_0273 0.564399999999999 63.4904 M 29 -1 0.5 MCI 2 3
021_S_0273_32733_I68448 021_S_0273 1.20820000000001 64.1342 M 29 0 0.5 MCI 2 3
021_S_0273_41010_I79525 021_S_0273 1.5617 64.4877 M 29 -1 0.5 MCI 2 3
021_S_0273_7808_I102711 021_S_0273 2.0521 64.9781 M 28 0 0.5 MCI 2 3
021_S_0273_5683_I143628 021_S_0273 3.0685 65.9945 M 30 0 0.5 MCI 2 3
021_S_0276_12260_I33433 021_S_0276 0 71.0082 M 30 0 0.5 LMCI 2 3
021_S_0276_19508_I33469 021_S_0276 0.536999999999992 71.5452 M 30 -1 0.5 LMCI 2 3
021_S_0276_29264_I67986 021_S_0276 1.0493 72.0575 M 30 1 0.5 LMCI 2 3
021_S_0276_41001_I79532 021_S_0276 1.55069999999999 72.5589 M 29 -1 0.5 LMCI 2 3
021_S_0276_7041_I101425 021_S_0276 1.9918 73 M 30 0 0.5 LMCI 2 3
021_S_0276_5202_I143632 021_S_0276 3.0384 74.0466 M 30 1 0.5 LMCI 2 3
022_S_0961_20711_I59601 022_S_0961 0 72.9288 M 26 1 0.5 MCI 3 4
022_S_0961_32706_I65980 022_S_0961 0.575299999999999 73.5041 M 21 -1 0.5 MCI 3 4
022_S_0961_42324_I83003 022_S_0961 1.04650000000001 73.9753 M 24 1 0.5 MCI 3 4
022_S_0961_9363_I105317 022_S_0961 1.515 74.4438 M 23 -1 0.5 MCI 3 4
022_S_0961_9586_I129241 022_S_0961 2.0822 75.011 M 23 0 0.5 MCI 3 4
022_S_0961_6328_I162260 022_S_0961 3.04650000000001 75.9753 M 24 1 0.5 MCI 3 4
022_S_1097_23337_I59610 022_S_1097 0 73.2137 M 25 1 0.5 LMCI 3 3
022_S_1097_43647_I86643 022_S_1097 1.0329 74.2466 M 23 1 0.5 LMCI 3 3
022_S_1097_1575_I112212 022_S_1097 1.53699999999999 74.7507 M 26 -1 0.5 LMCI 3 3
022_S_1097_0699_I132261 022_S_1097 2.0274 75.2411 M 24 2 0.5 LMCI 3 3
022_S_1097_7240_I166866 022_S_1097 3.0247 76.2384 M 23 1 0.5 LMCI 3 3
023_S_0376_12652_I31384 023_S_0376 0 70.5534 M 28 3 0.5 LMCI 3 3
023_S_0376_20393_I52080 023_S_0376 0.545200000000008 71.0986 M 27 -1 0.5 LMCI 3 3
023_S_0376_28501_I64791 023_S_0376 0.961700000000008 71.5151 M 27 1 0.5 LMCI 3 3
023_S_0376_41951_I81892 023_S_0376 1.5617 72.1151 M 28 -1 0.5 LMCI 3 3
023_S_0376_8744_I103645 023_S_0376 2.0356 72.589 M 29 3 0.5 LMCI 3 3
023_S_0376_6979_I151310 023_S_0376 3.07950000000001 73.6329 M 29 2 0.5 LMCI 3 3
027_S_0307_13072_I34159 027_S_0307 0 78.6493 M 28 2 0.5 LMCI 3 3
027_S_0307_20691_I86179 027_S_0307 0.539699999999996 79.189 M 27 -1 0.5 LMCI 3 3
027_S_0307_31877_I65298 027_S_0307 1.0849 79.7342 M 30 2 0.5 LMCI 3 3
027_S_0307_42692_I83021 027_S_0307 1.6082 80.2575 M 29 -1 0.5 LMCI 3 3
027_S_0307_8852_I103672 027_S_0307 2.03020000000001 80.6795 M 29 2 0.5 LMCI 3 3
027_S_0307_5648_I149535 027_S_0307 2.9607 81.61 M 30 1 0.5 LMCI 3 3
029_S_0914_4287_I124879 029_S_0914 0 74.7644 M 30 1 0.5 LMCI 3 4
029_S_0914_35004_I71486 029_S_0914 0.561599999999999 75.326 M 29 -1 0.5 LMCI 3 4
029_S_0914_45255_I91674 029_S_0914 1.12050000000001 75.8849 M 29 0 0.5 LMCI 3 4
029_S_0914_3061_I121794 029_S_0914 1.5424 76.3068 M 30 -1 0.5 LMCI 3 4
029_S_0914_1786_I136716 029_S_0914 2.074 76.8384 M 29 1 0.5 LMCI 3 4
029_S_0914_9808_I172038 029_S_0914 3.13420000000001 77.8986 M 30 1 0.5 LMCI 3 4
029_S_1218_25478_I67389 029_S_1218 0 85.537 F 27 2 0.5 MCI 2 3
029_S_1218_44820_I94838 029_S_1218 0.997199999999992 86.5342 F 30 2 0.5 MCI 2 3
029_S_1218_5461_I121812 029_S_1218 1.5616 87.0986 F 30 -1 0.5 MCI 2 3
029_S_1218_4684_I143888 029_S_1218 2.137 87.674 F 29 1 0.5 MCI 2 3
029_S_1218_9682_I172268 029_S_1218 3.03009999999999 88.5671 F 27 3 0.5 MCI 2 3
031_S_0351_13461_I65401 031_S_0351 0 68.5014 M 29 2 0.5 LMCI 3 3
031_S_0351_21905_I89948 031_S_0351 0.542400000000001 69.0438 M 29 -1 0.5 LMCI 3 3
031_S_0351_32191_I65620 031_S_0351 1.07119999999999 69.5726 M 30 1 0.5 LMCI 3 3
031_S_0351_42555_I85499 031_S_0351 1.55889999999999 70.0603 M 29 -1 0.5 LMCI 3 3
031_S_0351_9090_I104372 031_S_0351 2.01089999999999 70.5123 M 27 1 0.5 LMCI 3 3
031_S_0351_6793_I160835 031_S_0351 3.0274 71.5288 M 28 1 0.5 LMCI 3 3
031_S_0830_18847_I79342 031_S_0830 0 70.9151 M 29 1 0.5 LMCI 3 4
031_S_0830_29284_I51863 031_S_0830 0.553400000000011 71.4685 M 29 -1 0.5 LMCI 3 4
031_S_0830_39458_I92444 031_S_0830 1.01090000000001 71.926 M 28 0 0.5 LMCI 3 4
031_S_0830_7398_I102502 031_S_0830 1.5287 72.4438 M 29 -1 0.5 LMCI 3 4
031_S_0830_6755_I124115 031_S_0830 2.0356 72.9507 M 24 2 0.5 LMCI 3 4
031_S_0830_4049_I162428 031_S_0830 3.02460000000001 73.9397 M 28 0 0.5 LMCI 3 4
031_S_0867_19256_I67423 031_S_0867 0 71.9342 M 30 0 0.5 LMCI 3 3
031_S_0867_29633_I60483 031_S_0867 0.550699999999992 72.4849 M 30 -1 0.5 LMCI 3 3
031_S_0867_40140_I79611 031_S_0867 1.00279999999999 72.937 M 27 1 0.5 LMCI 3 3
031_S_0867_8500_I103691 031_S_0867 1.548 73.4822 M 29 -1 0.5 LMCI 3 3
031_S_0867_6746_I134796 031_S_0867 2.00829999999999 73.9425 M 28 0 0.5 LMCI 3 3
031_S_0867_4035_I163074 031_S_0867 3.0055 74.9397 M 28 1 0.5 LMCI 3 3
035_S_0292_12408_I39569 035_S_0292 0 76.5233 M 24 0 0.5 LMCI 3 3
035_S_0292_19811_I39583 035_S_0292 0.539699999999996 77.063 M 24 -1 0.5 LMCI 3 3
035_S_0292_32111_I67715 035_S_0292 1.13419999999999 77.6575 M 23 2 0.5 LMCI 3 3
035_S_0292_42476_I85506 035_S_0292 1.63289999999999 78.1562 M 25 -1 0.5 LMCI 3 3
035_S_0292_7900_I102756 035_S_0292 2.03559999999999 78.5589 M 22 2 0.5 LMCI 3 3
035_S_0292_8125_I163136 035_S_0292 3.05199999999999 79.5753 M 22 1 0.5 LMCI 3 3
036_S_0945_20971_I36999 036_S_0945 0 72.4493 M 25 1 0.5 LMCI 3 3
036_S_0945_33381_I71558 036_S_0945 0.627400000000009 73.0767 M 26 -1 0.5 LMCI 3 3
036_S_0945_42468_I95633 036_S_0945 1.0411 73.4904 M 25 3 0.5 LMCI 3 3
036_S_0945_0577_I108277 036_S_0945 1.5891 74.0384 M 22 -1 0.5 LMCI 3 3
036_S_0945_0045_I130059 036_S_0945 2.0849 74.5342 M 27 2 0.5 LMCI 3 3
036_S_0945_6478_I163172 036_S_0945 3.0493 75.4986 M 23 2 0.5 LMCI 3 3
037_S_0150_11434_I65130 037_S_0150 0 73.9808 M 27 1 0.5 LMCI 3 3
037_S_0150_19139_I68780 037_S_0150 0.632899999999992 74.6137 M 29 -1 0.5 LMCI 3 3
037_S_0150_28754_I68534 037_S_0150 1.1315 75.1123 M 29 1 0.5 LMCI 3 3
037_S_0150_39159_I95645 037_S_0150 1.611 75.5918 M 28 -1 0.5 LMCI 3 3
037_S_0150_46265_I97106 037_S_0150 2.07129999999999 76.0521 M 28 2 0.5 LMCI 3 3
037_S_0150_6565_I151122 037_S_0150 3.22189999999999 77.2027 M 27 1 0.5 LMCI 3 3
037_S_0377_13873_I83094 037_S_0377 0 79.4712 M 28 0 0.5 LMCI 3 4
037_S_0377_33742_I73631 037_S_0377 1.1288 80.6 M 28 2 0.5 LMCI 3 4
037_S_0377_43048_I87597 037_S_0377 1.5754 81.0466 M 29 -1 0.5 LMCI 3 4
037_S_0377_1599_I112239 037_S_0377 2.12610000000001 81.5973 M 29 1 0.5 LMCI 3 4
037_S_0377_2468_I163184 037_S_0377 3.2959 82.7671 M 30 0 0 LMCI 3 4
052_S_0989_22476_I64179 052_S_0989 0 64.4164 F 28 3 0.5 LMCI 2 4
052_S_0989_33301_I72241 052_S_0989 0.564400000000006 64.9808 F 24 -1 0.5 LMCI 2 4
052_S_0989_5330_I121970 052_S_0989 1.59180000000001 66.0082 F 24 -1 0.5 LMCI 2 4
052_S_0989_1084_I134908 052_S_0989 2.10690000000001 66.5233 F 29 2 0.5 LMCI 2 4
052_S_0989_0362_I172277 052_S_0989 3.2603 67.6767 F -1 -1 -1 LMCI 2 4
053_S_0389_13550_I65676 053_S_0389 0 71.5425 F 26 1 0.5 MCI 3 4
053_S_0389_22124_I66635 053_S_0389 0.547899999999998 72.0904 F 23 -1 0.5 MCI 3 4
053_S_0389_33442_I70726 053_S_0389 1.05199999999999 72.5945 F 24 1 0.5 MCI 3 4
053_S_0389_2763_I102396 053_S_0389 1.5698 73.1123 F 26 -1 0.5 MCI 3 4
053_S_0389_9575_I107985 053_S_0389 2.03009999999999 73.5726 F 29 2 0.5 MCI 3 4
053_S_0389_7915_I160223 053_S_0389 3.1041 74.6466 F -1 -1 -1 MCI 3 4
053_S_0919_20422_I65689 053_S_0919 0 62.5014 M 27 1 0.5 LMCI 2 4
053_S_0919_31892_I66653 053_S_0919 0.558900000000001 63.0603 M 29 -1 0.5 LMCI 2 4
053_S_0919_41934_I87132 053_S_0919 1.0191 63.5205 M 30 0 0.5 LMCI 2 4
053_S_0919_0926_I121422 053_S_0919 1.61640000000001 64.1178 M 30 -1 0.5 LMCI 2 4
053_S_0919_8400_I134516 053_S_0919 2.0383 64.5397 M 29 1 0.5 LMCI 2 4
053_S_0919_5835_I166930 053_S_0919 3.04930000000001 65.5507 M 29 1 0 LMCI 2 4
057_S_0464_14736_I34707 057_S_0464 0 83.2411 M 29 0 0.5 MCI 3 3
057_S_0464_25901_I62952 057_S_0464 0.632899999999992 83.874 M 29 -1 0.5 MCI 3 3
057_S_0464_33667_I72414 057_S_0464 1.074 84.3151 M 28 2 0.5 MCI 3 3
057_S_0464_42942_I85567 057_S_0464 1.5151 84.7562 M 28 -1 0.5 MCI 3 3
057_S_0464_2959_I123908 057_S_0464 2.1288 85.3699 M 30 2 0.5 MCI 3 3
057_S_0464_9136_I160245 057_S_0464 3.10679999999999 86.3479 M 29 2 0.5 MCI 3 3
067_S_0176_12799_I34797 067_S_0176 0 74.8795 M 28 2 0.5 MCI 3 4
067_S_0176_24106_I64938 067_S_0176 0.673900000000003 75.5534 M 27 -1 0.5 MCI 3 4
067_S_0176_32619_I85968 067_S_0176 1.13420000000001 76.0137 M 27 2 0.5 MCI 3 4
067_S_0176_1877_I133399 067_S_0176 2.2137 77.0932 M 25 2 0.5 MCI 3 4
067_S_0176_7162_I164203 067_S_0176 3.08760000000001 77.9671 M 27 1 0.5 MCI 3 4
067_S_0290_12592_I34846 067_S_0290 0 75.2849 M 28 1 0.5 MCI 3 4
067_S_0290_26711_I64305 067_S_0290 0.8904 76.1753 M 29 -1 0.5 MCI 3 4
067_S_0290_33523_I80634 067_S_0290 1.20830000000001 76.4932 M 28 0 0.5 MCI 3 4
067_S_0290_0435_I133413 067_S_0290 2.14800000000001 77.4329 M 28 0 0.5 MCI 3 4
067_S_0290_8375_I159977 067_S_0290 3.1918 78.4767 M 26 0 0.5 MCI 3 4
068_S_0802_8266_I132915 068_S_0802 0 81.0356 F 26 2 0.5 LMCI 3 3
068_S_0802_31778_I72459 068_S_0802 0.690399999999997 81.726 F 30 -1 0.5 LMCI 3 3
068_S_0802_0785_I130194 068_S_0802 1.76439999999999 82.8 F 29 -1 0.5 LMCI 3 3
068_S_0802_1055_I134917 068_S_0802 2.31779999999999 83.3534 F 29 1 0.5 LMCI 3 3
072_S_1211_27809_I64960 072_S_1211 0 86.9589 M 28 3 0.5 MCI 3 3
072_S_1211_38985_I79012 072_S_1211 0.495900000000006 87.4548 M 24 -1 0.5 MCI 3 3
072_S_1211_3433_I142170 072_S_1211 1.9562 88.9151 M 27 0 0.5 MCI 3 3
072_S_1380_30046_I64332 072_S_1380 0 84.9288 M 29 3 0.5 LMCI 3 3
072_S_1380_40699_I80312 072_S_1380 0.449300000000008 85.3781 M 27 -1 0.5 LMCI 3 3
072_S_1380_6966_I124147 072_S_1380 1.46300000000001 86.3918 M 29 -1 0.5 LMCI 3 3
072_S_1380_7033_I160856 072_S_1380 2.05200000000001 86.9808 M 29 1 0.5 LMCI 3 3
072_S_1380_2718_I205524 072_S_1380 2.9616 87.8904 M 27 0 0.5 LMCI 3 3
094_S_0921_19582_I49510 094_S_0921 0 71.4685 M 26 2 0.5 MCI 3 4
094_S_0921_32299_I64365 094_S_0921 0.616399999999999 72.0849 M 26 -1 0.5 MCI 3 4
094_S_0921_41573_I80397 094_S_0921 1.0274 72.4959 M 26 3 0.5 MCI 3 4
094_S_0921_1885_I112448 094_S_0921 1.5945 73.063 M 26 -1 0.5 MCI 3 4
094_S_0921_7639_I124778 094_S_0921 2.03559999999999 73.5041 M 26 1 0.5 MCI 3 4
094_S_0921_5002_I162819 094_S_0921 3.0137 74.4822 M 26 1 0.5 MCI 3 4
094_S_1314_27488_I63196 094_S_1314 0 80.8493 F 28 0 0.5 MCI 2 3
094_S_1314_7528_I101774 094_S_1314 1.0356 81.8849 F 28 1 0.5 MCI 2 3
094_S_1314_6302_I122248 094_S_1314 1.5343 82.3836 F 27 -1 0.5 MCI 2 3
094_S_1314_9127_I160059 094_S_1314 2.0712 82.9205 F 29 4 0.5 MCI 2 3
094_S_1314_1492_I204322 094_S_1314 3.0685 83.9178 F 28 3 0.5 MCI 2 3
098_S_0160_11224_I65739 098_S_0160 0 75.3205 M 27 1 0.5 LMCI 3 4
098_S_0160_18510_I89459 098_S_0160 0.5946 75.9151 M 24 -1 0.5 LMCI 3 4
098_S_0160_27398_I56004 098_S_0160 1.0603 76.3808 M 23 1 0.5 LMCI 3 4
098_S_0160_38219_I75102 098_S_0160 1.5535 76.874 M 24 -1 0.5 LMCI 3 4
098_S_0160_46224_I97182 098_S_0160 2.07130000000001 77.3918 M 25 1 0.5 LMCI 3 4
098_S_0160_4221_I143357 098_S_0160 3.07130000000001 78.3918 M 24 1 0.5 LMCI 3 4
099_S_0291_12065_I34524 099_S_0291 0 79.4274 M 30 5 0.5 LMCI 3 4
099_S_0291_19512_I34531 099_S_0291 0.558899999999994 79.9863 M 30 -1 0 LMCI 3 4
099_S_0291_29168_I65442 099_S_0291 1.0658 80.4932 M 28 2 0.5 LMCI 3 4
099_S_0291_41016_I80442 099_S_0291 1.5753 81.0027 M 30 -1 0.5 LMCI 3 4
099_S_0291_7067_I101787 099_S_0291 2.01639999999999 81.4438 M 30 1 0 LMCI 3 4
099_S_0291_4844_I148058 099_S_0291 3.0329 82.4603 M 28 4 0 LMCI 3 4
100_S_0296_12814_I33121 100_S_0296 0 79.3068 M 26 1 0.5 LMCI 3 3
100_S_0296_20894_I62341 100_S_0296 0.558999999999997 79.8658 M 25 -1 0.5 LMCI 3 3
100_S_0296_29945_I80659 100_S_0296 1.03840000000001 80.3452 M 27 0 0.5 LMCI 3 3
109_S_0950_21165_I97200 109_S_0950 0 73.6274 M 26 5 0.5 MCI 3 3
109_S_0950_33867_I79026 109_S_0950 0.649300000000011 74.2767 M 30 -1 0.5 MCI 3 3
109_S_0950_0598_I121090 109_S_0950 1.1452 74.7726 M 25 10 0.5 MCI 3 3
109_S_0950_3533_I123271 109_S_0950 1.72330000000001 75.3507 M 27 -1 0.5 MCI 3 3
109_S_0950_5779_I147503 109_S_0950 2.1096 75.737 M 24 3 0.5 MCI 3 3
114_S_0378_12760_I95688 114_S_0378 0 69.1123 F 28 1 0.5 LMCI 3 4
114_S_0378_21540_I81418 114_S_0378 0.561700000000002 69.674 F 29 -1 0.5 LMCI 3 4
114_S_0378_32395_I99104 114_S_0378 1.1014 70.2137 F 28 0 0.5 LMCI 3 4
114_S_0378_42779_I92590 114_S_0378 1.5809 70.6932 F 27 -1 0.5 LMCI 3 4
114_S_0378_1925_I112328 114_S_0378 2.20819999999999 71.3205 F 26 2 0.5 LMCI 3 4
114_S_0378_6813_I160104 114_S_0378 3.0658 72.1781 F 27 1 0.5 LMCI 3 4
116_S_0361_13809_I59753 116_S_0361 0 74.5863 M 29 0 0.5 LMCI 3 4
116_S_0361_21220_I59763 116_S_0361 0.49860000000001 75.0849 M 26 -1 0.5 LMCI 3 4
116_S_0361_32277_I64383 116_S_0361 1.0356 75.6219 M 29 1 0.5 LMCI 3 4
116_S_0361_42153_I82612 116_S_0361 1.5151 76.1014 M 25 -1 0.5 LMCI 3 4
116_S_0361_9272_I105474 116_S_0361 1.9945 76.5808 M 29 1 0.5 LMCI 3 4
116_S_0361_7442_I151179 116_S_0361 3.0082 77.5945 M 26 0 0.5 LMCI 3 4
123_S_1300_27689_I66305 123_S_1300 0 73.5644 F 28 2 0.5 LMCI 3 3
123_S_1300_40837_I80894 123_S_1300 0.569800000000001 74.1342 F 29 -1 0.5 LMCI 3 3
123_S_1300_7447_I102132 123_S_1300 1.05199999999999 74.6164 F 27 2 0 LMCI 3 3
123_S_1300_7266_I124530 123_S_1300 1.589 75.1534 F 30 -1 0 LMCI 3 3
123_S_1300_5110_I143851 123_S_1300 2.05199999999999 75.6164 F 30 0 0.5 LMCI 3 3
123_S_1300_2646_I176976 123_S_1300 3.06569999999999 76.6301 F 30 2 0.5 LMCI 3 3
127_S_0925_21560_I67266 127_S_0925 0 74.6301 M 29 1 0.5 LMCI 3 3
127_S_0925_32506_I82664 127_S_0925 0.556200000000004 75.1863 M 27 -1 0.5 LMCI 3 3
127_S_0925_43012_I85641 127_S_0925 1.074 75.7041 M 28 2 0.5 LMCI 3 3
127_S_0925_1172_I109910 127_S_0925 1.6028 76.2329 M 29 -1 0.5 LMCI 3 3
127_S_0925_0215_I129646 127_S_0925 2.06310000000001 76.6932 M 24 3 0.5 LMCI 3 3
127_S_0925_5868_I162956 127_S_0925 3.01650000000001 77.6466 M 24 1 0.5 LMCI 3 3
128_S_0135_11200_I68623 128_S_0135 0 82.4603 F 29 5 0.5 LMCI 3 3
128_S_0135_19183_I69631 128_S_0135 0.652000000000001 83.1123 F 29 -1 0.5 LMCI 3 3
128_S_0135_26272_I68630 128_S_0135 1.03829999999999 83.4986 F 30 7 0.5 LMCI 3 3
128_S_0135_38342_I75120 128_S_0135 1.5753 84.0356 F 28 -1 0.5 LMCI 3 3
128_S_0135_8928_I160175 128_S_0135 3.39179999999999 85.8521 F 29 6 0.5 LMCI 3 3
128_S_0138_1204_I104521 128_S_0138 0 86.4438 M 27 2 0.5 LMCI 3 3
128_S_0138_18461_I68639 128_S_0138 0.597300000000004 87.0411 M 30 -1 0 LMCI 3 3
128_S_0138_26783_I68652 128_S_0138 1.07130000000001 87.5151 M 27 0 0 LMCI 3 3
128_S_0188_11508_I69639 128_S_0188 0 86.2219 M 27 0 0.5 MCI 3 4
128_S_0188_18651_I68657 128_S_0188 0.586299999999994 86.8082 M 29 -1 0.5 MCI 3 4
128_S_0188_26528_I68670 128_S_0188 1.0247 87.2466 M 30 0 0.5 MCI 3 4
128_S_0188_37899_I74514 128_S_0188 1.5343 87.7562 M 30 -1 0 MCI 3 4
128_S_0188_46893_I99219 128_S_0188 2.0932 88.3151 M 28 0 0.5 MCI 3 4
128_S_0200_11638_I68802 128_S_0200 0 61.5781 M 27 2 0.5 LMCI 3 3
128_S_0200_18928_I98866 128_S_0200 0.583500000000001 62.1616 M 30 -1 0.5 LMCI 3 3
128_S_0200_27619_I68679 128_S_0200 1.0575 62.6356 M 28 1 0.5 LMCI 3 3
128_S_0200_39246_I79851 128_S_0200 1.5808 63.1589 M 28 -1 0.5 LMCI 3 3
128_S_0200_7002_I102414 128_S_0200 2.0767 63.6548 M 30 1 0.5 LMCI 3 3
128_S_0200_8826_I160329 128_S_0200 3.337 64.9151 M 29 2 0.5 LMCI 3 3
128_S_0205_11578_I68813 128_S_0205 0 66.5616 F 30 0 0.5 LMCI 3 3
128_S_0205_18697_I68684 128_S_0205 0.583600000000004 67.1452 F 30 -1 0 LMCI 3 3
128_S_0205_27625_I68819 128_S_0205 1.0658 67.6274 F 30 0 0 LMCI 3 3
128_S_0205_38865_I75669 128_S_0205 1.5672 68.1288 F 30 -1 0 LMCI 3 3
128_S_0205_46888_I99300 128_S_0205 2.0795 68.6411 F 30 1 0 LMCI 3 3
128_S_0225_11679_I68842 128_S_0225 0 82.4329 F 28 1 0.5 LMCI 3 3
128_S_0225_19109_I90587 128_S_0225 0.594499999999996 83.0274 F 27 -1 0 LMCI 3 3
128_S_0225_27217_I68702 128_S_0225 1.0329 83.4658 F 28 3 0 LMCI 3 3
128_S_0225_39167_I89874 128_S_0225 1.57259999999999 84.0055 F 30 -1 0 LMCI 3 3
128_S_0225_7291_I102096 128_S_0225 2.0904 84.5233 F 29 2 0 LMCI 3 3
128_S_0608_15212_I69019 128_S_0608 0 68.5068 F 27 2 0.5 MCI 3 3
128_S_0608_23973_I69023 128_S_0608 0.531599999999997 69.0384 F 29 -1 0.5 MCI 3 3
128_S_0608_34229_I69372 128_S_0608 1.07680000000001 69.5836 F 28 2 0.5 MCI 3 3
128_S_0608_44144_I89888 128_S_0608 1.55070000000001 70.0575 F 27 -1 0.5 MCI 3 3
128_S_0608_3986_I123944 128_S_0608 2.13160000000001 70.6384 F 27 10 0.5 MCI 3 3
128_S_0770_17428_I70859 128_S_0770 0 71.3014 M 26 0 0.5 LMCI 3 3
128_S_0770_25986_I69715 128_S_0770 0.528700000000001 71.8301 M 30 -1 0.5 LMCI 3 3
128_S_0770_37023_I75678 128_S_0770 1.0301 72.3315 M 29 1 0.5 LMCI 3 3
128_S_0770_7839_I102807 128_S_0770 1.68219999999999 72.9836 M 29 -1 0.5 LMCI 3 3
130_S_0285_12462_I39117 130_S_0285 0 65.7671 M 28 2 0.5 LMCI 3 4
130_S_0285_9028_I138928 130_S_0285 1.011 66.7781 M 30 2 0.5 LMCI 3 4
130_S_0285_41536_I80917 130_S_0285 1.5671 67.3342 M 30 -1 0.5 LMCI 3 4
130_S_0285_3676_I123380 130_S_0285 2.03020000000001 67.7973 M 29 3 0.5 LMCI 3 4
130_S_0449_5123_I121508 130_S_0449 0 66.6356 F 29 3 0.5 MCI 4 4
130_S_0449_22250_I80930 130_S_0449 0.424700000000001 67.0603 F 29 3 0.5 MCI 4 4
130_S_0449_27201_I80939 130_S_0449 0.742500000000007 67.3781 F 29 -1 0.5 MCI 4 4
130_S_0449_45347_I92022 130_S_0449 1.6849 68.3205 F 29 -1 0.5 MCI 4 4
130_S_0449_3702_I123953 130_S_0449 2.1288 68.7644 F 29 1 0.5 MCI 4 4
131_S_0384_12790_I48002 131_S_0384 0 79.874 M 29 0 0.5 LMCI 3 3
131_S_0384_24435_I67756 131_S_0384 0.737000000000009 80.611 M 29 -1 0.5 LMCI 3 3
131_S_0384_33802_I80769 131_S_0384 1.23010000000001 81.1041 M 30 0 0.5 LMCI 3 3
131_S_0384_44574_I94667 131_S_0384 1.80550000000001 81.6795 M 29 -1 0.5 LMCI 3 3
131_S_0384_9312_I105521 131_S_0384 2.0822 81.9562 M 29 0 0.5 LMCI 3 3
131_S_0384_6964_I160347 131_S_0384 3.0986 82.9726 M 30 0 0 LMCI 3 3
133_S_0771_18575_I92286 133_S_0771 0 74.3096 F 28 0 0.5 MCI 3 3
133_S_0771_29296_I72556 133_S_0771 0.572599999999994 74.8822 F 29 -1 0.5 MCI 3 3
133_S_0771_41411_I91189 133_S_0771 1.09859999999999 75.4082 F 29 0 0.5 MCI 3 3
133_S_0771_9013_I108076 133_S_0771 1.6164 75.926 F 28 -1 0.5 MCI 3 3
133_S_0771_7011_I124335 133_S_0771 2.0877 76.3973 F 30 0 0.5 MCI 3 3
133_S_0792_18306_I66373 133_S_0792 0 73.5836 M 30 0 0.5 MCI 3 3
133_S_0792_29222_I81567 133_S_0792 0.594499999999996 74.1781 M 29 -1 0.5 MCI 3 3
133_S_0792_39994_I92721 133_S_0792 1.08489999999999 74.6685 M 29 1 0.5 MCI 3 3
133_S_0792_7229_I102543 133_S_0792 1.5616 75.1452 M 30 -1 0.5 MCI 3 3
133_S_0792_6514_I120306 133_S_0792 2.06569999999999 75.6493 M 28 1 0.5 MCI 3 3
133_S_0912_19884_I40000 133_S_0912 0 74.0164 F 29 3 0.5 MCI 3 4
133_S_0912_30156_I72565 133_S_0912 0.536999999999992 74.5534 F 30 -1 0.5 MCI 3 4
133_S_0912_42205_I88122 133_S_0912 1.06309999999999 75.0795 F 29 3 0.5 MCI 3 4
133_S_0912_9520_I105813 133_S_0912 1.53699999999999 75.5534 F 30 -1 0.5 MCI 3 4
133_S_0912_8409_I128556 133_S_0912 2.0795 76.0959 F 30 4 0.5 MCI 3 4
133_S_1031_21552_I40019 133_S_1031 0 77.1534 F 29 1 0.5 MCI 3 3
133_S_1031_43001_I85654 133_S_1031 1.0548 78.2082 F 29 2 0.5 MCI 3 3
133_S_1031_9938_I106585 133_S_1031 1.52329999999999 78.6767 F 28 -1 0.5 MCI 3 3
133_S_1031_9576_I129664 133_S_1031 2.0521 79.2055 F 30 2 0.5 MCI 3 3
133_S_1031_6672_I163364 133_S_1031 3.05759999999999 80.211 F 28 1 0.5 MCI 3 3
136_S_0107_11707_I40445 136_S_0107 0 60.8356 F 28 2 0.5 LMCI 3 3
136_S_0107_18343_I40437 136_S_0107 0.528800000000004 61.3644 F 28 -1 0.5 LMCI 3 3
136_S_0107_27179_I66722 136_S_0107 1.0247 61.8603 F 30 2 0.5 LMCI 3 3
136_S_0107_39031_I79062 136_S_0107 1.5617 62.3973 F 29 -1 0.5 LMCI 3 3
136_S_0107_46157_I97287 136_S_0107 2.0219 62.8575 F 30 2 0.5 LMCI 3 3
136_S_0107_8219_I160555 136_S_0107 3.29040000000001 64.126 F 28 2 0.5 LMCI 3 3
137_S_0158_11648_I45872 137_S_0158 0 80.5288 F 29 3 0.5 MCI 2 3
137_S_0158_20209_I42985 137_S_0158 0.671199999999999 81.2 F 30 -1 0.5 MCI 2 3
137_S_0158_29050_I66199 137_S_0158 1.11499999999999 81.6438 F 29 2 0.5 MCI 2 3
137_S_0158_39289_I81472 137_S_0158 1.578 82.1068 F 30 -1 0 MCI 2 3
137_S_0158_7432_I102548 137_S_0158 2.1096 82.6384 F 30 3 -1 MCI 2 3
137_S_0158_4949_I148908 137_S_0158 3.10679999999999 83.6356 F 30 2 -1 MCI 2 3
137_S_0443_15548_I46622 137_S_0443 0 63.1479 M 28 0 0.5 MCI 3 3
137_S_0443_27311_I66213 137_S_0443 0.709600000000002 63.8575 M 27 -1 0.5 MCI 3 3
137_S_0443_37005_I79268 137_S_0443 1.148 64.2959 M 29 0 0 MCI 3 3
137_S_0443_45728_I94676 137_S_0443 1.6713 64.8192 M 30 -1 0.5 MCI 3 3
137_S_0443_8443_I128565 137_S_0443 2.3946 65.5425 M 30 1 0 MCI 3 3
137_S_0443_2308_I162693 137_S_0443 3.1617 66.3096 M 30 2 0.5 MCI 3 3
137_S_0481_14293_I46647 137_S_0481 0 84.926 M 24 2 0.5 MCI 3 4
137_S_0481_23576_I45920 137_S_0481 0.575400000000002 85.5014 M 22 -1 0.5 MCI 3 4
137_S_0481_32582_I89103 137_S_0481 1.0356 85.9616 M 28 1 0.5 MCI 3 4
137_S_0481_43436_I94683 137_S_0481 1.5699 86.4959 M 26 -1 0.5 MCI 3 4
137_S_0481_1109_I109968 137_S_0481 2.074 87 M 28 2 0.5 MCI 3 4
137_S_0481_8383_I160587 137_S_0481 3.0822 88.0082 M 27 2 0.5 MCI 3 4
137_S_0800_17822_I43035 137_S_0800 0 74.1699 M 29 3 0.5 LMCI 4 4
137_S_0800_26960_I66255 137_S_0800 0.525999999999996 74.6959 M 28 -1 0.5 LMCI 4 4
137_S_0800_39150_I79092 137_S_0800 1.07940000000001 75.2493 M 28 2 0.5 LMCI 4 4
137_S_0800_6924_I101982 137_S_0800 1.578 75.7479 M 29 -1 0.5 LMCI 4 4
137_S_0800_2920_I162728 137_S_0800 3.0493 77.2192 M 29 1 0 LMCI 4 4
137_S_0994_21634_I45943 137_S_0994 0 55.2055 F 27 1 0.5 LMCI 3 4
137_S_0994_33053_I87735 137_S_0994 0.591799999999999 55.7973 F 26 -1 0.5 LMCI 3 4
137_S_0994_43448_I91224 137_S_0994 1.0959 56.3014 F 25 3 0.5 LMCI 3 4
137_S_0994_0930_I109983 137_S_0994 1.589 56.7945 F 26 -1 0.5 LMCI 3 4
137_S_0994_0513_I130128 137_S_0994 2.0931 57.2986 F 28 3 0.5 LMCI 3 4
137_S_0994_6839_I323026 137_S_0994 3.0849 58.2904 F 25 0 0.5 LMCI 3 4
141_S_0851_19364_I47870 141_S_0851 0 72.6658 F 25 0 0.5 MCI 3 4
141_S_0851_31669_I89678 141_S_0851 0.586299999999994 73.2521 F 20 -1 0.5 MCI 3 4
141_S_0851_41581_I81508 141_S_0851 1.04649999999999 73.7123 F 24 1 0.5 MCI 3 4
